[
   {
      "name_th":"เนื้อไก่",
      "name_en":"raw chicken",
      "name_unit":"กก.",
      "price":65
   },
   {
      "name_th":"เนื้อหมู",
      "name_en":"pork",
      "name_unit":"กก.",
      "price":110
   },
   {
      "name_th":"ปีกไก่",
      "name_en":"chicken wing",
      "name_unit":"กก.",
      "price":61
   },
   {
      "name_th":"ลูกชิ้นหมูลูกเล็ก",
      "name_en":"small pork ball",
      "name_unit":"กก.",
      "price":110
   },
   {
      "name_th":"เลือดหมู",
      "name_en":"pig blood",
      "name_unit":"หลอด",
      "price":8
   },
   {
      "name_th":"ซี่โครงหมู",
      "name_en":"pork rip",
      "name_unit":"กก.",
      "price":125
   },
   {
      "name_th":"กุ้งขาว",
      "name_en":"white shrimp",
      "name_unit":"กก.",
      "price":239
   },
   {
      "name_th":"เต้าหู้ปลา",
      "name_en":"fish tofu",
      "name_unit":"กก.",
      "price":133
   },
   {
      "name_th":"ปลาดอร์รี่แช่แข็ง",
      "name_en":"frozen dory fish ",
      "name_unit":"กก.",
      "price":100
   },
   {
      "name_th":"ปูอัด",
      "name_en":"crab sticks",
      "name_unit":"กก.",
      "price":263
   },
   {
      "name_th":"ลูกชิ้นปลาลูกเล็ก",
      "name_en":"small fish ball",
      "name_unit":"กก.",
      "price":226
   },
   {
      "name_th":"กระชายซอย",
      "name_en":"finger root",
      "name_unit":"กก.",
      "price":53
   },
   {
      "name_th":"กล้วยไข่",
      "name_en":"lady finger banana",
      "name_unit":"หวี",
      "price":25
   },
   {
      "name_th":"กล้วยน้ำว้า",
      "name_en":"cultivated banana",
      "name_unit":"หวี",
      "price":16
   },
   {
      "name_th":"กวางตุ้ง",
      "name_en":"choy sum",
      "name_unit":"กก.",
      "price":22
   },
   {
      "name_th":"กวางตุ้งฮ่องเต้",
      "name_en":"bok choy",
      "name_unit":"กก.",
      "price":40
   },
   {
      "name_th":"กะหล่ำดอก",
      "name_en":"cauliflower",
      "name_unit":"กก.",
      "price":48
   },
   {
      "name_th":"กะหล่ำปลี",
      "name_en":"cabbage",
      "name_unit":"กก.",
      "price":20
   },
   {
      "name_th":"แก้วมังกร",
      "name_en":"dragon fruit",
      "name_unit":"กก.",
      "price":45
   },
   {
      "name_th":"ข่า",
      "name_en":"gala",
      "name_unit":"กก.",
      "price":38
   },
   {
      "name_th":"ข้าวโพดหวาน",
      "name_en":"sweet corn",
      "name_unit":"กก.",
      "price":25
   },
   {
      "name_th":"ข้าวโพดอ่อน",
      "name_en":"baby corn",
      "name_unit":"กก.",
      "price":41
   },
   {
      "name_th":"ขิง",
      "name_en":"ginger",
      "name_unit":"กก.",
      "price":35
   },
   {
      "name_th":"ขิงซอย",
      "name_en":"ginger soi",
      "name_unit":"กก.",
      "price":50
   },
   {
      "name_th":"คะน้า",
      "name_en":"kale",
      "name_unit":"กก.",
      "price":25
   },
   {
      "name_th":"คื่นฉ่าย",
      "name_en":"celery",
      "name_unit":"กก.",
      "price":91
   },
   {
      "name_th":"แคนตาลูป",
      "name_en":"cantaloupe",
      "name_unit":"กก.",
      "price":38
   },
   {
      "name_th":"แครอท",
      "name_en":"carrot",
      "name_unit":"กก.",
      "price":25
   },
   {
      "name_th":"ต้นหอม",
      "name_en":"scallion",
      "name_unit":"กก.",
      "price":98
   },
   {
      "name_th":"ตะไคร้",
      "name_en":"lemongrass",
      "name_unit":"กก.",
      "price":16
   },
   {
      "name_th":"แตงกวา",
      "name_en":"cucumber",
      "name_unit":"กก.",
      "price":22
   },
   {
      "name_th":"แตงโม",
      "name_en":"watermelon",
      "name_unit":"กก.",
      "price":19
   },
   {
      "name_th":"ถั่วงอก",
      "name_en":"bean sprouts",
      "name_unit":"กก.",
      "price":18
   },
   {
      "name_th":"ถั่วฝักยาว",
      "name_en":"long bean",
      "name_unit":"กก.",
      "price":41
   },
   {
      "name_th":"บร็อคโคลี่",
      "name_en":"broccoli",
      "name_unit":"กก.",
      "price":65
   },
   {
      "name_th":"บวบเหลี่ยม",
      "name_en":"octopus zucchini",
      "name_unit":"กก.",
      "price":25
   },
   {
      "name_th":"ใบกะเพรา",
      "name_en":"basil leaves",
      "name_unit":"กก.",
      "price":46
   },
   {
      "name_th":"ใบมะกรูด",
      "name_en":"kaffir lime leaves",
      "name_unit":"กก.",
      "price":41
   },
   {
      "name_th":"ใบสะระแหน่",
      "name_en":"mint leaves",
      "name_unit":"กก.",
      "price":86
   },
   {
      "name_th":"ผักกาดขาว",
      "name_en":"chinese cabbage",
      "name_unit":"กก.",
      "price":23
   },
   {
      "name_th":"ผักกาดหอม",
      "name_en":"lettuce",
      "name_unit":"กก.",
      "price":37
   },
   {
      "name_th":"ผักชี",
      "name_en":"parsley",
      "name_unit":"กก.",
      "price":130
   },
   {
      "name_th":"ผักชีใบยาว",
      "name_en":"long parsley",
      "name_unit":"กก.",
      "price":40
   },
   {
      "name_th":"ผักบุ้งจีน",
      "name_en":"chinese morning glory",
      "name_unit":"กก.",
      "price":20
   },
   {
      "name_th":"ผักบุ้งไทย",
      "name_en":"thai morning glory",
      "name_unit":"กก.",
      "price":28
   },
   {
      "name_th":"เผือก",
      "name_en":"taro",
      "name_unit":"กก.",
      "price":43
   },
   {
      "name_th":"ฝรั่ง",
      "name_en":"africa",
      "name_unit":"กก.",
      "price":28
   },
   {
      "name_th":"พริกขี้หนู",
      "name_en":"paprika",
      "name_unit":"กก.",
      "price":98
   },
   {
      "name_th":"พริกชี้ฟ้าเขียว",
      "name_en":"green pepper",
      "name_unit":"กก.",
      "price":57
   },
   {
      "name_th":"พริกชี้ฟ้าแดง",
      "name_en":"red pepper",
      "name_unit":"กก.",
      "price":50
   },
   {
      "name_th":"พริกไทยอ่อน",
      "name_en":"soft pepper",
      "name_unit":"กก.",
      "price":86
   },
   {
      "name_th":"พริกเหลือง",
      "name_en":"chili melon",
      "name_unit":"กก.",
      "price":75
   },
   {
      "name_th":"ฟักเขียว",
      "name_en":"hatching green",
      "name_unit":"กก.",
      "price":28
   },
   {
      "name_th":"ฟักทอง",
      "name_en":"pumpkin",
      "name_unit":"กก.",
      "price":23
   },
   {
      "name_th":"มะเขือเทศ",
      "name_en":"tomato",
      "name_unit":"กก.",
      "price":45
   },
   {
      "name_th":"มะเขือเปราะ",
      "name_en":"eggplant peppers",
      "name_unit":"กก.",
      "price":21
   },
   {
      "name_th":"มะเขือพวง",
      "name_en":"eggplant",
      "name_unit":"กก.",
      "price":65
   },
   {
      "name_th":"มะนาว",
      "name_en":"lemon",
      "name_unit":"ลูก",
      "price":4
   },
   {
      "name_th":"มะพร้าวอ่อน",
      "name_en":"young coconut",
      "name_unit":"ลูก",
      "price":32
   },
   {
      "name_th":"มะละกอดิบ",
      "name_en":"raw papaya",
      "name_unit":"กก.",
      "price":18
   },
   {
      "name_th":"มะละกอสุก",
      "name_en":"ripe papaya",
      "name_unit":"กก.",
      "price":35
   },
   {
      "name_th":"มันเทศ",
      "name_en":"purple potato",
      "name_unit":"กก.",
      "price":30
   },
   {
      "name_th":"ลูกมะกรูด",
      "name_en":"bergamot",
      "name_unit":"กก.",
      "price":16
   },
   {
      "name_th":"ส้มโอ",
      "name_en":"grapefruit",
      "name_unit":"ลูก",
      "price":53
   },
   {
      "name_th":"สับปะรด",
      "name_en":"pineapple",
      "name_unit":"กก.",
      "price":21
   },
   {
      "name_th":"หน่อไม้ฝรั่ง",
      "name_en":"asparagus",
      "name_unit":"กก.",
      "price":113
   },
   {
      "name_th":"หอมหัวใหญ่",
      "name_en":"onion",
      "name_unit":"กก.",
      "price":23
   },
   {
      "name_th":"หัวไชเท้า",
      "name_en":"radish",
      "name_unit":"กก.",
      "price":34
   },
   {
      "name_th":"เห็ดชิเมจิขาว",
      "name_en":"white shimei mushroom",
      "name_unit":"กก.",
      "price":140
   },
   {
      "name_th":"เห็ดนางฟ้า",
      "name_en":"oyster mushroom",
      "name_unit":"กก.",
      "price":70
   },
   {
      "name_th":"เห็ดฟาง",
      "name_en":"fool mushroom",
      "name_unit":"กก.",
      "price":91
   },
   {
      "name_th":"เห็ดหูหนูดำ",
      "name_en":"black wood ear mushroom",
      "name_unit":"กก.",
      "price":38
   },
   {
      "name_th":"โหระพา",
      "name_en":"basil",
      "name_unit":"กก.",
      "price":46
   },
   {
      "name_th":"แอปเปิ้ล",
      "name_en":"apple",
      "name_unit":"กก.",
      "price":96
   },
   {
      "name_th":"ไข่ไก่",
      "name_en":"chicken egg",
      "name_unit":"ฟอง",
      "price":3.5
   },
   {
      "name_th":"ขนมกล้วย",
      "name_en":"steamed banana cake",
      "name_unit":"ชิ้น",
      "price":10
   },
   {
      "name_th":"ขนมจีบ",
      "name_en":"dumpling",
      "name_unit":"แพ็ค",
      "price":296
   },
   {
      "name_th":"ขนมชั้น",
      "name_en":"toddy palm cake",
      "name_unit":"ชิ้น",
      "price":10
   },
   {
      "name_th":"ขนมตาล",
      "name_en":"layer sweet cake",
      "name_unit":"ชิ้น",
      "price":10
   },
   {
      "name_th":"ขนมปังขาว",
      "name_en":"white bread",
      "name_unit":"ถุง",
      "price":34
   },
   {
      "name_th":"ขนมปังโฮลวีท",
      "name_en":"whole wheat bread",
      "name_unit":"ถุง",
      "price":37
   },
   {
      "name_th":"ครองแครง",
      "name_en":"caramelized crisps & coconut sauce",
      "name_unit":"กก.",
      "price":80
   },
   {
      "name_th":"ซาลาเปาแช่แข็งไส้หมูแดง",
      "name_en":"frozen buns with red pork",
      "name_unit":"แพ็ค",
      "price":51
   },
   {
      "name_th":"ซาลาเปาแช่แข็งไส้หมูสับ",
      "name_en":"frozen buns with minced pork",
      "name_unit":"แพ็ค",
      "price":51
   },
   {
      "name_th":"เต้าหู้ไข่",
      "name_en":"egg tofu",
      "name_unit":"หลอด",
      "price":9
   },
   {
      "name_th":"เต้าหู้แผ่นขาว",
      "name_en":"white tofu sheet",
      "name_unit":"แผ่น",
      "price":12
   },
   {
      "name_th":"เต้าหู้แผ่นเหลือง",
      "name_en":"yellow tofu sheet",
      "name_unit":"แผ่น",
      "price":17
   },
   {
      "name_th":"เนย",
      "name_en":"butter",
      "name_unit":"ก้อน",
      "price":80
   },
   {
      "name_th":"บะหมี่เหลือง",
      "name_en":"egg noodles",
      "name_unit":"กก.",
      "price":46
   },
   {
      "name_th":"ผักรวมแช่แข็ง",
      "name_en":"frozen mix vegetables",
      "name_unit":"กก.",
      "price":56
   },
   {
      "name_th":"แผ่นเกี๊ยว",
      "name_en":"wonton sheet",
      "name_unit":"แพ็ค",
      "price":56
   },
   {
      "name_th":"พริกแกงเขียวหวาน",
      "name_en":"green curry pepper",
      "name_unit":"กก.",
      "price":73
   },
   {
      "name_th":"พริกแกงเผ็ด",
      "name_en":"red curry pepper",
      "name_unit":"กก.",
      "price":86
   },
   {
      "name_th":"พริกแกงพะแนง",
      "name_en":"panang curry paste",
      "name_unit":"กก.",
      "price":83
   },
   {
      "name_th":"พริกแกงส้ม",
      "name_en":"chili curry paste",
      "name_unit":"กก.",
      "price":76
   },
   {
      "name_th":"มะขามเปียก",
      "name_en":"tamarind",
      "name_unit":"กก.",
      "price":70
   },
   {
      "name_th":"ลูกชิด",
      "name_en":"palm seed",
      "name_unit":"กก.",
      "price":73
   },
   {
      "name_th":"เส้นก๋วยจั๊บ",
      "name_en":"chubby noodles",
      "name_unit":"กก.",
      "price":30
   },
   {
      "name_th":"เส้นใหญ่",
      "name_en":"big flat noodles",
      "name_unit":"กก.",
      "price":28
   },
   {
      "name_th":"กระเจี๊ยบแห้ง",
      "name_en":"dried roselle",
      "name_unit":"แพ็ค",
      "price":251
   },
   {
      "name_th":"กะทิธัญพืช",
      "name_en":"cereal coconut milk",
      "name_unit":"กล่อง",
      "price":85
   },
   {
      "name_th":"กระเทียม",
      "name_en":"garlic",
      "name_unit":"กก.",
      "price":70
   },
   {
      "name_th":"เก๊กฮวยแห้ง",
      "name_en":"dry chrysanthemum",
      "name_unit":"แพ็ค",
      "price":395
   },
   {
      "name_th":"เกลือ",
      "name_en":"salt",
      "name_unit":"กก.",
      "price":12
   },
   {
      "name_th":"ข้าวคั่ว",
      "name_en":"roasted rice",
      "name_unit":"แพ็ค",
      "price":50
   },
   {
      "name_th":"ข้าวเหนียวดำ",
      "name_en":"glutinous rice",
      "name_unit":"แพ็ค",
      "price":44
   },
   {
      "name_th":"ไข่ขาวผง (2 ปอนด์)",
      "name_en":"egg white powder",
      "name_unit":"ถุง",
      "price":1100
   },
   {
      "name_th":"เครื่องดื่มมอลต์รสช็อกโกแลต",
      "name_en":"chocolate malt beverage",
      "name_unit":"ลัง",
      "price":483
   },
   {
      "name_th":"เครื่องตุ๋นยาจีน",
      "name_en":"chinese medicine stew",
      "name_unit":"ซอง",
      "price":31
   },
   {
      "name_th":"เครื่องปรุงพริกน้ำตาล",
      "name_en":"sugar chili condiment",
      "name_unit":"แพ็ค",
      "price":29
   },
   {
      "name_th":"เครื่องปรุงพริกน้ำส้ม",
      "name_en":"chili condiment",
      "name_unit":"แพ็ค",
      "price":29
   },
   {
      "name_th":"เครื่องพะโล้",
      "name_en":"spicy sauce",
      "name_unit":"ซอง",
      "price":5
   },
   {
      "name_th":"แครกเกอร์",
      "name_en":"cracker",
      "name_unit":"แพ็ค",
      "price":56
   },
   {
      "name_th":"งาขาว",
      "name_en":"white sesame",
      "name_unit":"แพ็ค",
      "price":61
   },
   {
      "name_th":"ชุดจับเลี้ยง",
      "name_en":"catch set",
      "name_unit":"แพ็ค",
      "price":76
   },
   {
      "name_th":"ซอสมะเขือเทศ",
      "name_en":"tomato sauce",
      "name_unit":"กก.",
      "price":32
   },
   {
      "name_th":"ซอสหอยนางรม",
      "name_en":"oyster sauce",
      "name_unit":"ขวด",
      "price":40
   },
   {
      "name_th":"ซีอิ๊วขาว",
      "name_en":"soy sauce",
      "name_unit":"ขวด",
      "price":40
   },
   {
      "name_th":"ซีอิ๊วดำหวาน",
      "name_en":"sweet black soy sauce",
      "name_unit":"ขวด",
      "price":28
   },
   {
      "name_th":"ดอกคำฝอย",
      "name_en":"safflower",
      "name_unit":"แพ็ค",
      "price":43
   },
   {
      "name_th":"เต้าเจี้ยว",
      "name_en":"mung bean",
      "name_unit":"ขวด",
      "price":34
   },
   {
      "name_th":"ถั่วเขียว",
      "name_en":"green bean",
      "name_unit":"ถุง",
      "price":35
   },
   {
      "name_th":"ถั่วเขียวเราะเปลือก",
      "name_en":"mung bean crust",
      "name_unit":"ถุง",
      "price":40
   },
   {
      "name_th":"ถั่วดำ",
      "name_en":"black bean",
      "name_unit":"ถุง",
      "price":36
   },
   {
      "name_th":"ถั่วแดง",
      "name_en":"red beans",
      "name_unit":"ถุง",
      "price":42
   },
   {
      "name_th":"ทูน่าแซนวิสในน้ำแร่",
      "name_en":"tuna sandwiches in mineral water",
      "name_unit":"กระป๋อง",
      "price":40
   },
   {
      "name_th":"นมข้นจืด",
      "name_en":"unsweetened condensed milk",
      "name_unit":"กระป๋อง",
      "price":22
   },
   {
      "name_th":"นมถั่วเหลืองน้ำตาลน้อยผสมงาดำ",
      "name_en":"soy milk, less sugar, black sesame mix",
      "name_unit":"ลัง",
      "price":296
   },
   {
      "name_th":"นมเปรี้ยว",
      "name_en":"sour milk",
      "name_unit":"ลัง",
      "price":211
   },
   {
      "name_th":"นมพร่องมันเนย",
      "name_en":"skim milk",
      "name_unit":"ลัง",
      "price":485
   },
   {
      "name_th":"น้ำจิ้มไก่",
      "name_en":"chicken sauce",
      "name_unit":"ขวด",
      "price":55
   },
   {
      "name_th":"น้ำจิ้มบ๊วย",
      "name_en":"plum sauce",
      "name_unit":"ขวด",
      "price":30
   },
   {
      "name_th":"น้ำตาลกรวด",
      "name_en":"rock sugar",
      "name_unit":"แพ็ค",
      "price":62
   },
   {
      "name_th":"น้ำตาลทราย",
      "name_en":"sugar",
      "name_unit":"กก.",
      "price":22
   },
   {
      "name_th":"น้ำตาลเทียม",
      "name_en":"artificial sugar",
      "name_unit":"กล่อง",
      "price":104
   },
   {
      "name_th":"น้ำตาลมะพร้าว",
      "name_en":"coconut sugar",
      "name_unit":"กก.",
      "price":46
   },
   {
      "name_th":"น้ำปลา",
      "name_en":"fish sauce",
      "name_unit":"ขวด",
      "price":30
   },
   {
      "name_th":"น้ำพริกเผา",
      "name_en":"chili paste",
      "name_unit":"ขวด",
      "price":91
   },
   {
      "name_th":"น้ำมันถั่วเหลือง (1 ลิตร)",
      "name_en":"soybean oil (1 liter)",
      "name_unit":"ขวด",
      "price":42
   },
   {
      "name_th":"น้ำมันปาล์ม (1 ลิตร)",
      "name_en":"palm oil (1 liter)",
      "name_unit":"ขวด",
      "price":31
   },
   {
      "name_th":"น้ำมันรำข้าว (1 ลิตร)",
      "name_en":"rice bran oil (1 liter)",
      "name_unit":"ขวด",
      "price":64
   },
   {
      "name_th":"น้ำส้ม",
      "name_en":"orange juice",
      "name_unit":"กล่อง",
      "price":16
   },
   {
      "name_th":"น้ำส้มสายชู (700 มล.)",
      "name_en":"vinegar (700 ml)",
      "name_unit":"ขวด",
      "price":19
   },
   {
      "name_th":"น้ำสลัดครีม (1,000 กรัม)",
      "name_en":"cream dressing (1,000 grams)",
      "name_unit":"ถุง",
      "price":101
   },
   {
      "name_th":"น้ำหวาน สีเขียว (710 มล.)",
      "name_en":"green nectar (710 ml)",
      "name_unit":"ขวด",
      "price":45
   },
   {
      "name_th":"น้ำหวาน สีแดง (710 มล.)",
      "name_en":"red nectar (710 ml)",
      "name_unit":"ขวด",
      "price":45
   },
   {
      "name_th":"น้ำแอปเปิ้ล",
      "name_en":"apple juice",
      "name_unit":"กล่อง",
      "price":16
   },
   {
      "name_th":"แป้งข้าวโพด",
      "name_en":"corn starch",
      "name_unit":"กก.",
      "price":52
   },
   {
      "name_th":"แป้งท้าวยายม่อม",
      "name_en":"thao yai mom flour",
      "name_unit":"กก.",
      "price":106
   },
   {
      "name_th":"แป้งมันสำปะหลัง",
      "name_en":"tapioca starch",
      "name_unit":"กก.",
      "price":71
   },
   {
      "name_th":"แป้งสาลี",
      "name_en":"wheat flour",
      "name_unit":"กก.",
      "price":39
   },
   {
      "name_th":"โป๊ยกั๊ก",
      "name_en":"anise",
      "name_unit":"แพ็ค",
      "price":270
   },
   {
      "name_th":"โปรตีนเกษตรบด",
      "name_en":"crushed agricultural protein",
      "name_unit":"กก.",
      "price":230
   },
   {
      "name_th":"โปรตีนเกษตรลูกเต๋า",
      "name_en":"dice agro-protein",
      "name_unit":"กก.",
      "price":244
   },
   {
      "name_th":"ผงกระหรี่",
      "name_en":"artificial sugar",
      "name_unit":"ซอง",
      "price":4.5
   },
   {
      "name_th":"ผงวุ้น",
      "name_en":"coconut sugar",
      "name_unit":"ซอง",
      "price":64
   },
   {
      "name_th":"พริกขี้หนูแห้ง",
      "name_en":"fish sauce",
      "name_unit":"กก.",
      "price":201
   },
   {
      "name_th":"พริกไทยป่น",
      "name_en":"chili paste",
      "name_unit":"กก.",
      "price":370
   },
   {
      "name_th":"พริกแห้ง",
      "name_en":"soybean oil (1 liter)",
      "name_unit":"กก.",
      "price":173
   },
   {
      "name_th":"พุทราจีนแห้ง",
      "name_en":"palm oil (1 liter)",
      "name_unit":"แพ็ค",
      "price":41
   },
   {
      "name_th":"ฟองเต้าหู้",
      "name_en":"rice bran oil (1 liter)",
      "name_unit":"กก.",
      "price":783
   },
   {
      "name_th":"มะกะโรนีรูปข้องอ",
      "name_en":"orange juice",
      "name_unit":"แพ็ค",
      "price":65
   },
   {
      "name_th":"มะตูมแห้ง",
      "name_en":"vinegar (700 ml)",
      "name_unit":"แพ็ค",
      "price":108
   },
   {
      "name_th":"วุ้นเส้น",
      "name_en":"cream dressing (1,000 grams)",
      "name_unit":"แพ็ค",
      "price":76
   },
   {
      "name_th":"สปาเก็ตตี้",
      "name_en":"green nectar (710 ml)",
      "name_unit":"แพ็ค",
      "price":63
   },
   {
      "name_th":"สาคูขาว",
      "name_en":"red nectar (710 ml)",
      "name_unit":"ถุง",
      "price":41
   },
   {
      "name_th":"สีผสมอาหาร",
      "name_en":"apple juice",
      "name_unit":"ซอง",
      "price":3
   },
   {
      "name_th":"เส้นหมี่อบแห้ง",
      "name_en":"corn starch",
      "name_unit":"แพ็ค",
      "price":28
   },
   {
      "name_th":"หมูหยอง",
      "name_en":"thao yai mom flour",
      "name_unit":"แพ็ค",
      "price":358
   },
   {
      "name_th":"หล่อฮังก๊วย",
      "name_en":"tapioca starch",
      "name_unit":"แพ็ค",
      "price":70
   },
   {
      "name_th":"หอมแดง",
      "name_en":"wheat flour",
      "name_unit":"กก.",
      "price":26
   },
   {
      "name_th":"เห็ดหอมแห้ง",
      "name_en":"anise",
      "name_unit":"กก.",
      "price":442
   },
   {
      "name_th":"เหล้าจีน (640 มล.)",
      "name_en":"crushed agricultural protein",
      "name_unit":"ขวด",
      "price":235
   },
   {
      "name_th":"อบเชย",
      "name_en":"dice agro-protein",
      "name_unit":"แพ็ค",
      "price":185
   },
   {
      "name_th":"รากผักชี",
      "name_en":"coriander root",
      "name_unit":"กก.",
      "price":85
   }
]
